…
``` r

df %>% 
    count(ip_op_flag, service_line) %>%
    arrange(ip_op_flag, desc(n)) %>%
    rename(count = n)
#> # A tibble: 30 × 3
#>    ip_op_flag service_line                                 count
#>    <chr>      <chr>                                        <int>
#>  1 I          Medical                                      64435
#>  2 I          Surgical                                     14916
#>  3 I          COPD                                          4398
#>  4 I          CHF                                           3871
#>  5 I          Pneumonia                                     3323
#>  6 I          Cellulitis                                    3311
#>  7 I          Major Depression/Bipolar Affective Disorders  2866
#>  8 I          Chest Pain                                    2766
#>  9 I          GI Hemorrhage                                 2404
#> 10 I          MI                                            2253
#> # ℹ 20 more rows
```
